-40 72 -32 16 -48 -80 -64 -48 -8 512
-32 -56 -8 -8 -72 8 -72 -72 600
-16 -32 -24 -24 -24 -16 -16 784
-56 -8 -40 -24 -72 -32 -40 664
-16 56 -72 -24 -40 8 -72 -16 -56 560
-80 -64 -40 80 -48 -24 64 -80 -56 384
-24 -72 -16 -8 32 -80 -64 -72 560
-32 -56 -48 24 -32 -48 88 -8 32 -64 480
8 -8 64 -40 -16 32 -24 -8 48 -24 -16 616
-16 -72 -32 -72 40 -64 -16 -16 600
72 -8 -56 40 -8 -32 -80 -48 64 -64 440
